<svg width="28" height="24" viewBox="0 0 28 24" fill="none" xmlns="http://www.w3.org/2000/svg">
<path d="M3.03346 3.85627C3.0335 3.42506 3.3521 2.56263 3.73447 2.15606H0.739247C0 2.26694 0 2.85832 0 2.85832V23.2854C0.0764739 23.9138 0.701011 24 0.701011 24H17.6145C18.3537 23.8891 18.3792 23.2854 18.3792 23.2854V2.85832C18.3792 2.67351 18.0861 2.20534 17.64 2.16838H14.632C15.384 3.10473 15.2438 3.42505 15.333 3.85627H16.6331V22.3121H1.74615V3.85627H3.03346Z" fill="#085B63"/>
<path d="M4.01488 4.12731C4.01488 3.04542 4.9222 2.16838 6.04144 2.16838H12.2613C13.3805 2.16838 14.2879 3.04542 14.2879 4.12731C14.2879 5.2092 13.3805 6.08624 12.2613 6.08624H6.04144C4.9222 6.08624 4.01488 5.2092 4.01488 4.12731Z" fill="#085B63"/>
<path d="M8.96019 5.74127C7.7776 5.74127 6.81892 4.81459 6.81892 3.67146V2.06982C6.81892 0.926688 7.7776 6.93551e-08 8.96019 1.93874e-08L9.41903 0C10.6016 -4.99677e-08 11.5603 0.926688 11.5603 2.06982V3.67146C11.5603 4.81459 10.6016 5.74127 9.41903 5.74127H8.96019Z" fill="#085B63"/>
<path d="M6.56401 10.5955C6.56401 11.2759 5.99337 11.8275 5.28944 11.8275C4.58552 11.8275 4.01488 11.2759 4.01488 10.5955C4.01488 9.91505 4.58552 9.36345 5.28944 9.36345C5.99337 9.36345 6.56401 9.91505 6.56401 10.5955Z" fill="#085B63"/>
<path d="M7.07383 10.3737H13.6251V10.8172H7.07383V10.3737Z" fill="#085B63"/>
<path d="M6.56401 14.0205C6.56401 14.701 5.99337 15.2526 5.28944 15.2526C4.58552 15.2526 4.01488 14.701 4.01488 14.0205C4.01488 13.3401 4.58552 12.7885 5.28944 12.7885C5.99337 12.7885 6.56401 13.3401 6.56401 14.0205Z" fill="#085B63"/>
<path d="M7.07383 13.7988H13.6251V14.2423H7.07383V13.7988Z" fill="#085B63"/>
<path d="M6.56401 17.4456C6.56401 18.126 5.99337 18.6776 5.28944 18.6776C4.58552 18.6776 4.01488 18.126 4.01488 17.4456C4.01488 16.7652 4.58552 16.2136 5.28944 16.2136C5.99337 16.2136 6.56401 16.7652 6.56401 17.4456Z" fill="#085B63"/>
<path d="M7.07383 17.2238H13.6251V17.6674H7.07383V17.2238Z" fill="#085B63"/>
<path d="M14.2725 15.1162L22.3731 7.28584L23.0445 7.93467L14.9438 15.7651L14.2725 15.1162Z" fill="#085B63"/>
<path d="M15.461 16.2653L23.5617 8.4349L24.234 9.08485L16.1333 16.9152L15.461 16.2653Z" fill="#085B63"/>
<path d="M13.1025 19.1951L16.6036 18.3697L13.9565 15.8109L13.1025 19.1951Z" fill="#085B63"/>
<path d="M26.0196 5.76125C25.4482 5.20895 24.522 5.20895 23.9506 5.76125L22.8906 6.78588L25.9401 9.73368L27.0002 8.70905C27.5714 8.15675 27.5714 7.26139 27.0002 6.70909L26.0196 5.76125Z" fill="#085B63"/>
<path d="M16.6507 17.4152L24.7512 9.58494L25.4226 10.2338L17.3219 18.0642L16.6507 17.4152Z" fill="#085B63"/>
</svg>
