<svg width="80" height="80" viewBox="0 0 80 80" fill="none" xmlns="http://www.w3.org/2000/svg">
<path d="M34.2217 3.24316H5.01217C4.03465 3.24316 3.24219 4.02682 3.24219 4.99348V33.8777C3.24219 34.8443 4.03465 35.628 5.01217 35.628H34.2217C35.1992 35.628 35.9917 34.8443 35.9917 33.8777V4.99348C35.9925 4.02682 35.2 3.24316 34.2217 3.24316ZM32.4525 32.1281H6.78216V6.7438H32.4525V32.1281Z" fill="white"/>
<path d="M75.8131 3.24316H46.6012C45.6245 3.24316 44.832 4.02682 44.832 4.99348V33.8777C44.832 34.8443 45.6245 35.628 46.6012 35.628H75.8131C76.7899 35.628 77.5831 34.8443 77.5831 33.8777V4.99348C77.5831 4.02682 76.7899 3.24316 75.8131 3.24316ZM74.0423 32.1281H48.372V6.7438H74.0431V32.1281H74.0423Z" fill="white"/>
<path d="M34.2217 44.3721H5.01217C4.03465 44.3721 3.24219 45.1557 3.24219 46.1216V75.0066C3.24219 75.9725 4.03465 76.7569 5.01217 76.7569H34.2217C35.1992 76.7569 35.9917 75.9725 35.9917 75.0066V46.1216C35.9925 45.1557 35.2 44.3721 34.2217 44.3721ZM32.4525 73.2555H6.78216V47.8719H32.4525V73.2555Z" fill="white"/>
<path d="M75.8131 44.3721H46.6012C45.6245 44.3721 44.832 45.1557 44.832 46.1216V75.0066C44.832 75.9725 45.6245 76.7569 46.6012 76.7569H75.8131C76.7899 76.7569 77.5831 75.9725 77.5831 75.0066V46.1216C77.5831 45.1557 76.7899 44.3721 75.8131 44.3721ZM74.0423 73.2555H48.372V47.8719H74.0431V73.2555H74.0423Z" fill="white"/>
</svg>
