<svg width="80" height="80" viewBox="0 0 80 80" fill="none" xmlns="http://www.w3.org/2000/svg">
<path d="M14.9781 58.1549H23.3574C24.352 58.1549 25.2261 57.3656 25.2261 56.3826V33.2235C25.2261 32.2405 24.3671 31.4958 23.3574 31.4958H16.6359V30.2001C16.6359 17.3025 27.0045 6.81757 39.694 6.81757C52.3834 6.81757 62.752 17.3025 62.752 30.2001V31.4958H56.0305C55.0359 31.4958 54.1618 32.2405 54.1618 33.2235V56.3826C54.1618 57.3656 55.0208 58.1549 56.0305 58.1549H57.7787V64.0676C57.7787 66.8526 55.4729 69.176 52.6547 69.176H41.1709C40.4475 66.793 38.2622 65.125 35.655 65.125C32.4751 65.125 29.883 67.6569 29.883 70.8142V71.0227C29.883 74.1652 32.46 76.7567 35.655 76.7567C38.2472 76.7567 40.4324 74.9844 41.1709 72.7504H52.6547C57.4773 72.7504 61.3957 68.8185 61.3957 64.0676V58.1549H64.4098C67.9062 58.1549 70.7395 55.355 70.7395 51.9146V37.6915C70.7395 34.9064 68.931 32.5384 66.369 31.7341V30.2001C66.369 15.3366 54.3728 3.24316 39.694 3.24316C25.0152 3.24316 13.0189 15.3366 13.0189 30.2001V31.7341C10.4569 32.5384 8.64844 34.9064 8.64844 37.6915V51.9146C8.64844 55.355 11.4817 58.1549 14.9781 58.1549ZM37.8855 71.0227C37.8855 72.1993 36.8908 73.1674 35.7002 73.1674C34.5097 73.1674 33.515 72.2142 33.515 71.0227V70.8142C33.515 69.6377 34.5097 68.6696 35.7002 68.6696C36.8908 68.6696 37.8855 69.6377 37.8855 70.8142V71.0227ZM67.1225 37.6915V51.9146C67.1225 53.389 65.9018 54.5805 64.4098 54.5805H57.7787V35.0702H64.4098C65.9018 35.0702 67.1225 36.217 67.1225 37.6915ZM12.2654 37.6915C12.2654 36.217 13.4861 35.0702 14.9781 35.0702H21.6092V54.5805H14.9781C13.4861 54.5805 12.2654 53.389 12.2654 51.9146V37.6915Z" fill="white"/>
</svg>
